model,vocab,acc_mean,acc_std,pre_mean,pre_std,rec_mean,rec_std,f1_mean,f1_std,auc_mean,auc_std,fpr_mean,fpr_std
lr,15165.0,0.8021582733812951,0.045670705749939235,0.7631810179563633,0.0938605610023307,0.7255157820490213,0.036669584886690414,0.7398795268392545,0.044035026716272616,0.8863772658501505,0.04387211021381062,0.1606895620076299,0.04454149962962588
nb,15165.0,0.7992805755395684,0.09580508307693111,0.7342285409839173,0.14351200925132362,0.8325868453535532,0.034830367010698096,0.7706192509106387,0.07888487950423148,0.8796099113661684,0.05085015491541756,0.18273767658791834,0.10588808360553421
lsvm,15165.0,0.7791366906474819,0.03844716321118674,0.7197847073376711,0.07356462275079492,0.7124669370481397,0.0547355179651586,0.7126768653010801,0.04098322159612116,0.0,0.0,0.180389567583789,0.03742229422497531
sgd,15165.0,0.8035971223021583,0.04403206833985428,0.7459931900938719,0.09247560157923398,0.7688414741668136,0.060637793274202705,0.7515899166218659,0.04142064287042272,0.0,0.0,0.16374544232974814,0.044376024712528085
svm,15165.0,0.7920863309352518,0.04360685600199063,0.7819198176910317,0.09845625242819729,0.6578733909363429,0.05731233391671433,0.7092492876181551,0.04669788305692869,0.8729049452739275,0.04675224169661566,0.1630399064792105,0.04147196820898878
knn,15165.0,0.7201438848920864,0.023021582733812967,0.8818455621813153,0.043610345504589164,0.3119908305413507,0.07124307961200359,0.45581572528679304,0.07575741331532684,0.7290531000209766,0.042600672201735926,0.18873184333808302,0.012120805971172651
rf,15165.0,0.7928057553956834,0.044615918658168774,0.788198237931555,0.0758799024192108,0.6316698994886263,0.09509943088338224,0.6975076766593202,0.07475613646754387,0.8690745341785459,0.04167478416030109,0.15815452496070978,0.03256524470026494
gb,15165.0,0.7906474820143885,0.044371637252113016,0.7629618465620753,0.09218439120821137,0.6823664256744842,0.07079056777694455,0.7146572660518773,0.05034608481865278,0.8841576115036996,0.04469186504369605,0.1667055852048839,0.0420885255690187
mlp,15165.0,0.8064748201438849,0.05139732690501223,0.7705440751011854,0.09999962686504489,0.7367836360430259,0.05705344539904244,0.7474587151978457,0.04844791099908158,0.886582203092684,0.04717882174869975,0.15879592298633197,0.052755942693802245
