model,vocab,acc_mean,acc_std,pre_mean,pre_std,rec_mean,rec_std,f1_mean,f1_std,auc_mean,auc_std,fpr_mean,fpr_std
lr,70986.0,0.8165467625899281,0.03947012007005813,0.7874171834810268,0.08016403593838335,0.7274378416505025,0.05307640258274879,0.7532258084975167,0.0468163418532814,0.8990658252480411,0.03387273797027357,0.14666995984371206,0.035362629651798656
nb,70986.0,0.8028776978417266,0.08705927774046532,0.7335835179277507,0.13155729907539018,0.8400811144418974,0.034742813556718294,0.7741388205816513,0.06896977085514504,0.8847534640812628,0.043118754445005486,0.17905172625634758,0.09821959302049958
lsvm,70986.0,0.8035971223021583,0.03721587670900017,0.764624382860807,0.07406874881570616,0.7181096808323048,0.07184616737045997,0.7366387207830328,0.04889405720539182,0.0,0.0,0.15747270686664627,0.032668407701958536
sgd,70986.0,0.8,0.06673994902623952,0.7535339587353433,0.11479978007634062,0.7554399576794216,0.06140099203155419,0.7473224598293239,0.061353357295188364,0.0,0.0,0.16800317861484904,0.06888441335190801
svm,70986.0,0.793525179856115,0.039705452450493894,0.811306383008748,0.08811404423525819,0.6164697584200317,0.10362729691766027,0.6925845424923172,0.06920838107194029,0.8741407919203936,0.03457735212925939,0.1568318905761341,0.03161993571839145
knn,70986.0,0.6820143884892087,0.01785564553379981,0.9501400560224089,0.043483729891519884,0.17861047434314936,0.04638663809641577,0.2979731165987083,0.06727489565216624,0.6266008925710996,0.032929147719014354,0.2056853488224319,0.009437142138710972
rf,70986.0,0.7755395683453237,0.0348457008296758,0.8172751713491188,0.046431698737907874,0.53196967025216,0.09104077295977706,0.6406083712474758,0.07495894828126154,0.8613555797072932,0.03278696825328852,0.16364649738530782,0.021997557908379595
gb,70986.0,0.7906474820143885,0.0362150012910884,0.7608445605417851,0.08060318890907069,0.680444366073003,0.05850546788547978,0.7139432612502176,0.04059837104526521,0.8677981102866041,0.04047777609870281,0.16609934050911124,0.03433556528306603
mlp,70986.0,0.8064748201438849,0.05903665680267236,0.7864383686943529,0.11537676779819428,0.7291835655087286,0.07348844937223559,0.7465812971000326,0.04775829418952149,0.8870630387452051,0.0337361772472595,0.16022034082450914,0.06615020235281617
